Lab7/data/AK_Exp3_Plot1_Small_Amplitude.csv

#Digilent WaveForms Oscilloscope Acquisition
#Device Name: Discovery2
#Serial Number: SN:210321A189EA
#Date Time: 2024-04-21 19:54:23.665
#Sample rate: 1.5873e+06Hz
#Samples: 8192
#Trigger: Source: Channel 1 Type: Edge Condition: Rising Level: 0 V Hyst.: Auto HoldOff: 0 s
#Channel 1: Range: 50 mV/div Offset: -1.51 V Sample Mode: Average
#Channel 2: Range: 50 mV/div Offset: -1.505 V Sample Mode: Average
#Wavegen Channel 1: Running
#Mode: Simple
#Type: Square
#Frequency: 500 Hz
#Period: 2 ms
#Amplitude: 100 mV
#Offset: 1.5 V
#Symmetry: 50 %
#Phase: 0 °

Time (s),Channel 1 (V),Channel 2 (V)
-0.002480921083805923,1.591679528729018,1.584664299528485
-0.002480291083805923,1.592011825349407,1.584664299528485
-0.002479661083805923,1.591679528729018,1.58399629435035
-0.002479031083805923,1.591679528729017,1.584330296939418
-0.002478401083805923,1.591014935488237,1.584664299528485
-0.002477771083805923,1.591347232108627,1.584998302117553
-0.002477141083805924,1.591014935488237,1.584330296939418
-0.002476511083805923,1.591347232108627,1.584330296939418
-0.002475881083805923,1.591347232108627,1.584664299528485
-0.002475251083805923,1.591347232108627,1.584664299528485
-0.002474621083805923,1.591679528729018,1.584330296939418
-0.002473991083805923,1.591679528729018,1.58399629435035
-0.002473361083805923,1.592011825349408,1.584330296939418
-0.002472731083805923,1.592011825349408,1.58399629435035
-0.002472101083805923,1.592344121969797,1.583662291761283
-0.002471471083805923,1.591347232108627,1.584330296939418
-0.002470841083805923,1.591347232108627,1.584330296939418
-0.002470211083805924,1.591347232108627,1.584330296939418
-0.002469581083805923,1.591679528729018,1.584330296939418
-0.002468951083805923,1.592011825349408,1.584664299528485
-0.002468321083805923,1.592011825349408,1.584998302117553
-0.002467691083805923,1.591679528729018,1.584998302117553
-0.002467061083805923,1.591014935488237,1.584664299528485
-0.002466431083805923,1.591347232108627,1.584330296939418
-0.002465801083805923,1.592011825349408,1.584664299528485
-0.002465171083805924,1.591347232108627,1.584664299528485
-0.002464541083805923,1.591347232108627,1.584664299528485
-0.002463911083805923,1.591347232108627,1.584330296939418
-0.002463281083805923,1.591679528729018,1.584664299528485
-0.002462651083805923,1.591347232108627,1.584664299528485
-0.002462021083805923,1.591679528729018,1.584998302117553
-0.002461391083805923,1.591679528729018,1.584998302117553
-0.002460761083805923,1.591347232108627,1.584330296939418
-0.002460131083805924,1.591347232108627,1.584330296939418
-0.002459501083805923,1.590682638867847,1.58399629435035
-0.002458871083805923,1.590350342247457,1.584664299528485
-0.002458241083805923,1.590682638867847,1.584330296939418
-0.002457611083805923,1.590350342247457,1.58399629435035
-0.002456981083805923,1.591347232108627,1.58399629435035
-0.002456351083805923,1.591679528729018,1.58399629435035
-0.002455721083805923,1.592344121969798,1.58399629435035
-0.002455091083805924,1.591679528729018,1.584330296939417
-0.002454461083805923,1.591347232108627,1.584664299528485
-0.002453831083805923,1.591014935488237,1.584664299528485
-0.002453201083805923,1.591679528729018,1.584330296939418
-0.002452571083805923,1.592344121969798,1.584330296939418
-0.002451941083805923,1.592011825349407,1.584330296939417
-0.002451311083805923,1.591347232108627,1.58399629435035
-0.002450681083805923,1.591347232108627,1.584330296939418
-0.002450051083805924,1.590682638867847,1.584330296939418
-0.002449421083805923,1.591347232108627,1.584664299528485
-0.002448791083805923,1.591679528729018,1.58533230470662
-0.002448161083805923,1.590682638867848,1.584664299528485
-0.002447531083805923,1.590682638867847,1.584330296939418
-0.002446901083805923,1.590682638867847,1.584664299528485
-0.002446271083805923,1.591014935488237,1.584330296939418
-0.002445641083805923,1.590682638867847,1.584330296939418
-0.002445011083805924,1.591014935488237,1.584664299528485
-0.002444381083805923,1.591347232108627,1.584664299528485
-0.002443751083805923,1.591347232108627,1.584330296939418
-0.002443121083805923,1.590682638867847,1.584664299528485
-0.002442491083805923,1.591014935488237,1.584664299528485
-0.002441861083805923,1.591014935488237,1.584664299528485
-0.002441231083805923,1.591347232108627,1.584330296939418
-0.002440601083805923,1.591347232108627,1.584664299528485
-0.002439971083805924,1.591347232108627,1.584664299528485
-0.002439341083805923,1.590682638867847,1.58399629435035
-0.002438711083805923,1.590350342247457,1.584330296939418
-0.002438081083805924,1.591014935488237,1.584664299528485
-0.002437451083805923,1.592011825349408,1.584664299528485
-0.002436821083805923,1.592344121969797,1.584664299528485
-0.002436191083805923,1.592011825349408,1.584664299528485
-0.002435561083805923,1.591679528729018,1.584330296939418
-0.002434931083805923,1.591347232108627,1.58399629435035
-0.002434301083805923,1.590682638867847,1.584330296939418
-0.002433671083805923,1.591347232108627,1.584330296939418
-0.002433041083805924,1.592011825349407,1.584998302117552
-0.002432411083805923,1.592011825349408,1.584664299528485
-0.002431781083805923,1.592676418590187,1.584664299528485
-0.002431151083805923,1.592011825349408,1.584330296939418
-0.002430521083805923,1.591679528729018,1.584998302117553
-0.002429891083805923,1.590682638867847,1.584664299528485
-0.002429261083805923,1.590682638867847,1.584330296939418
-0.002428631083805923,1.591347232108627,1.584330296939418
-0.002428001083805924,1.591014935488237,1.584330296939418
-0.002427371083805923,1.591014935488237,1.584664299528485
-0.002426741083805923,1.591014935488237,1.584664299528485
-0.002426111083805923,1.591679528729018,1.584664299528485
-0.002425481083805923,1.592011825349408,1.58399629435035
-0.002424851083805923,1.592344121969798,1.584330296939418
-0.002424221083805923,1.592344121969798,1.584330296939418
-0.002423591083805923,1.591679528729018,1.584664299528485
-0.002422961083805924,1.591347232108627,1.584664299528485
-0.002422331083805923,1.591014935488237,1.58399629435035
-0.002421701083805923,1.591014935488237,1.584330296939418
-0.002421071083805923,1.591347232108627,1.584664299528485
-0.002420441083805923,1.592011825349408,1.584664299528485
-0.002419811083805923,1.592011825349408,1.583662291761283
-0.002419181083805923,1.592011825349408,1.58399629435035
-0.002418551083805923,1.591679528729018,1.584664299528485
-0.002417921083805924,1.591679528729018,1.58533230470662
-0.002417291083805923,1.591014935488237,1.584998302117553
-0.002416661083805923,1.591347232108627,1.584998302117553
-0.002416031083805923,1.591347232108627,1.584330296939418
-0.002415401083805923,1.591347232108627,1.584330296939418
-0.002414771083805923,1.591347232108627,1.584330296939417
-0.002414141083805923,1.592011825349408,1.583662291761282
-0.002413511083805923,1.591014935488237,1.584664299528485
-0.002412881083805924,1.591679528729017,1.584330296939418
-0.002412251083805923,1.591347232108627,1.584998302117553
-0.002411621083805923,1.591014935488237,1.584664299528485
-0.002410991083805923,1.591347232108627,1.584330296939418
-0.002410361083805923,1.591014935488237,1.584330296939418
-0.002409731083805923,1.591679528729017,1.584330296939418
-0.002409101083805923,1.591347232108627,1.584664299528485
-0.002408471083805923,1.592011825349408,1.584330296939418
-0.002407841083805924,1.592344121969797,1.584330296939418
-0.002407211083805923,1.592011825349408,1.58399629435035
-0.002406581083805923,1.591679528729018,1.584998302117553
-0.002405951083805923,1.591347232108627,1.584664299528485
-0.002405321083805923,1.591347232108627,1.584664299528485
-0.002404691083805923,1.591679528729017,1.583662291761283
-0.002404061083805923,1.591347232108627,1.58399629435035
-0.002403431083805923,1.591679528729018,1.584330296939418
-0.002402801083805923,1.591679528729018,1.584330296939418
-0.002402171083805923,1.591679528729018,1.584664299528485
-0.002401541083805923,1.592344121969798,1.584330296939418
-0.002400911083805924,1.591679528729018,1.584998302117552
-0.002400281083805923,1.591679528729018,1.58399629435035
-0.002399651083805923,1.592011825349407,1.584330296939418
-0.002399021083805923,1.591679528729018,1.584664299528485
-0.002398391083805923,1.591679528729018,1.584330296939418
-0.002397761083805923,1.591679528729018,1.58399629435035
-0.002397131083805923,1.591679528729018,1.584664299528485
-0.002396501083805923,1.591347232108627,1.584664299528485
-0.002395871083805924,1.591014935488237,1.584664299528485
-0.002395241083805923,1.590682638867847,1.584664299528485
-0.002394611083805923,1.591347232108627,1.584998302117553
-0.002393981083805923,1.591347232108627,1.584998302117553
-0.002393351083805923,1.591347232108627,1.584664299528485
-0.002392721083805923,1.591347232108627,1.584998302117553
-0.002392091083805923,1.591679528729018,1.584998302117553
-0.002391461083805923,1.591347232108627,1.584664299528485
-0.002390831083805924,1.591014935488237,1.58399629435035
-0.002390201083805923,1.591679528729018,1.584664299528485
-0.002389571083805923,1.591679528729018,1.584664299528485
-0.002388941083805923,1.591014935488237,1.584998302117553
-0.002388311083805923,1.591347232108627,1.584664299528485
-0.002387681083805923,1.591679528729018,1.584330296939418
-0.002387051083805923,1.592011825349408,1.584998302117553
-0.002386421083805923,1.592011825349408,1.584998302117553
-0.002385791083805924,1.592011825349408,1.584664299528485
-0.002385161083805923,1.591347232108627,1.584330296939418
-0.002384531083805923,1.591347232108627,1.584664299528485
-0.002383901083805923,1.591679528729018,1.584664299528485
-0.002383271083805923,1.591347232108627,1.584998302117553
-0.002382641083805923,1.591679528729017,1.584330296939417
-0.002382011083805923,1.591347232108627,1.58399629435035
-0.002381381083805923,1.591679528729018,1.584664299528485
-0.002380751083805924,1.591347232108627,1.584998302117552
-0.002380121083805923,1.591014935488237,1.584998302117553
-0.002379491083805923,1.590350342247457,1.58533230470662
-0.002378861083805923,1.590682638867847,1.584664299528485
-0.002378231083805923,1.591679528729018,1.584998302117553
-0.002377601083805923,1.592011825349407,1.584330296939417
-0.002376971083805923,1.591679528729018,1.58399629435035
-0.002376341083805923,1.591014935488237,1.584664299528485
-0.002375711083805924,1.591014935488237,1.584330296939418
-0.002375081083805923,1.591679528729018,1.584664299528485
-0.002374451083805923,1.591679528729018,1.58399629435035
-0.002373821083805923,1.591347232108627,1.58399629435035
-0.002373191083805923,1.591679528729018,1.58399629435035
-0.002372561083805923,1.591014935488237,1.584330296939418
-0.002371931083805923,1.591014935488237,1.584330296939418
-0.002371301083805923,1.591014935488237,1.58399629435035
-0.002370671083805924,1.591347232108627,1.584664299528485
-0.002370041083805923,1.591679528729018,1.58399629435035
-0.002369411083805923,1.591014935488237,1.584330296939418
-0.002368781083805923,1.591014935488237,1.584330296939418
-0.002368151083805923,1.591014935488237,1.584664299528485
-0.002367521083805923,1.591347232108627,1.584664299528485
-0.002366891083805923,1.591014935488237,1.58399629435035
-0.002366261083805923,1.591014935488237,1.584330296939418
-0.002365631083805923,1.591347232108627,1.584664299528485
-0.002365001083805923,1.591347232108627,1.584330296939418
-0.002364371083805923,1.591347232108627,1.584664299528485
-0.002363741083805924,1.591014935488237,1.584330296939418
-0.002363111083805923,1.591347232108627,1.584330296939418
-0.002362481083805923,1.591679528729018,1.58399629435035
-0.002361851083805923,1.592011825349408,1.584998302117553
-0.002361221083805923,1.591014935488237,1.584330296939418
-0.002360591083805923,1.591347232108627,1.584330296939418
-0.002359961083805923,1.591014935488237,1.584330296939418
-0.002359331083805923,1.591347232108627,1.584330296939418
-0.002358701083805924,1.591347232108627,1.584330296939418
-0.002358071083805923,1.591679528729018,1.584664299528485
-0.002357441083805923,1.591679528729018,1.584330296939418
-0.002356811083805923,1.592344121969798,1.584664299528485
-0.002356181083805923,1.591679528729018,1.584664299528485
-0.002355551083805923,1.591014935488237,1.584664299528485
-0.002354921083805923,1.591347232108627,1.584664299528485
-0.002354291083805923,1.590682638867847,1.584664299528485
-0.002353661083805924,1.591347232108627,1.584664299528485
-0.002353031083805923,1.592011825349408,1.584664299528485
-0.002352401083805923,1.591014935488237,1.584998302117553
-0.002351771083805923,1.591014935488237,1.58533230470662
-0.002351141083805923,1.591014935488237,1.584330296939418
-0.002350511083805923,1.591014935488237,1.58399629435035
-0.002349881083805923,1.591014935488237,1.58399629435035
-0.002349251083805923,1.591679528729018,1.58399629435035
-0.002348621083805924,1.592011825349407,1.584330296939417
-0.002347991083805923,1.591347232108627,1.584330296939418
-0.002347361083805923,1.591347232108627,1.584330296939418
-0.002346731083805923,1.591679528729017,1.584664299528485
-0.002346101083805923,1.591679528729018,1.58399629435035
-0.002345471083805923,1.591347232108627,1.584664299528485
-0.002344841083805923,1.592011825349408,1.584330296939418
-0.002344211083805923,1.591347232108627,1.584664299528485
-0.002343581083805924,1.591679528729017,1.584330296939418
-0.002342951083805923,1.592011825349408,1.584330296939418
-0.002342321083805923,1.592011825349408,1.584330296939418
-0.002341691083805923,1.592011825349408,1.58399629435035
-0.002341061083805923,1.591347232108627,1.58399629435035
-0.002340431083805923,1.591347232108627,1.584664299528485
-0.002339801083805923,1.591679528729018,1.584998302117553
-0.002339171083805923,1.591679528729018,1.58533230470662
-0.002338541083805924,1.591014935488237,1.584664299528485
-0.002337911083805923,1.591347232108627,1.584998302117553
-0.002337281083805923,1.591347232108627,1.584664299528485
-0.002336651083805923,1.591014935488237,1.584664299528485
-0.002336021083805923,1.591014935488237,1.584664299528485
-0.002335391083805923,1.591014935488237,1.58399629435035
-0.002334761083805923,1.591347232108627,1.58399629435035
-0.002334131083805923,1.591679528729018,1.584330296939418
-0.002333501083805923,1.590682638867847,1.58399629435035
-0.002332871083805923,1.590350342247457,1.58399629435035
-0.002332241083805923,1.590682638867847,1.58399629435035
-0.002331611083805923,1.590682638867847,1.584664299528485
-0.002330981083805923,1.590018045627067,1.58533230470662
-0.002330351083805923,1.590682638867847,1.584664299528485
-0.002329721083805923,1.591014935488237,1.584330296939418
-0.002329091083805923,1.591347232108627,1.584330296939418
-0.002328461083805923,1.590682638867847,1.584998302117552
-0.002327831083805923,1.591014935488237,1.584664299528485
-0.002327201083805923,1.591679528729018,1.584664299528485
-0.002326571083805924,1.592011825349407,1.58399629435035
-0.002325941083805923,1.592011825349408,1.58399629435035
-0.002325311083805923,1.592344121969798,1.584330296939417
-0.002324681083805923,1.592344121969798,1.58399629435035
-0.002324051083805923,1.591679528729018,1.58399629435035
-0.002323421083805923,1.591347232108628,1.584664299528485
-0.002322791083805923,1.592344121969798,1.584330296939418
-0.002322161083805923,1.591679528729018,1.58399629435035
-0.002321531083805924,1.592011825349407,1.58399629435035
-0.002320901083805923,1.592011825349408,1.583662291761282
-0.002320271083805923,1.591347232108627,1.584664299528485
-0.002319641083805923,1.592676418590188,1.584330296939418
-0.002319011083805923,1.593008715210578,1.584664299528485
-0.002318381083805923,1.592011825349408,1.584664299528485
-0.002317751083805923,1.592011825349408,1.584664299528485
-0.002317121083805923,1.592011825349408,1.584330296939418
-0.002316491083805924,1.591679528729018,1.584998302117552
-0.002315861083805923,1.592344121969798,1.584998302117553
-0.002315231083805923,1.591679528729018,1.58533230470662
-0.002314601083805923,1.591347232108627,1.58533230470662
-0.002313971083805923,1.537515179605437,1.584330296939418
-0.002313341083805923,1.388646293670687,1.584664299528485
-0.002312711083805923,1.387981700429907,1.584664299528485
-0.002312081083805923,1.388978590291077,1.584664299528485
-0.002311451083805924,1.389643183531857,1.584330296939418
-0.002310821083805923,1.389310886911467,1.583328289172215
-0.002310191083805923,1.389643183531857,1.583328289172215
-0.002309561083805923,1.389975480152247,1.582326281405013
-0.002308931083805923,1.390307776772637,1.58132427363781
-0.002308301083805923,1.390307776772638,1.581324273637809
-0.002307671083805923,1.390640073393027,1.580322265870607
-0.002307041083805923,1.390640073393027,1.579320258103404
-0.002306411083805924,1.390307776772638,1.578986255514337
-0.002305781083805923,1.390972370013417,1.578318250336202
-0.002305151083805923,1.390640073393027,1.577316242568999
-0.002304521083805923,1.390640073393027,1.576648237390864
-0.002303891083805923,1.391636963254197,1.576314234801797
-0.002303261083805923,1.391304666633807,1.575312227034594
-0.002302631083805923,1.390972370013417,1.574310219267391
-0.002302001083805923,1.390640073393027,1.572974208911121
-0.002301371083805924,1.390972370013417,1.572306203732986
-0.002300741083805923,1.390972370013417,1.571972201143919
-0.002300111083805923,1.390640073393027,1.570970193376716
-0.002299481083805923,1.390640073393027,1.569968185609514
-0.002298851083805923,1.390307776772637,1.568632175253243
-0.002298221083805923,1.391304666633807,1.568632175253243
-0.002297591083805923,1.390972370013417,1.567964170075108
-0.002296961083805923,1.391969259874588,1.566628159718838
-0.002296331083805923,1.391636963254197,1.565626151951635
-0.002295701083805923,1.390972370013417,1.564958146773501
-0.002295071083805923,1.390307776772637,1.564290141595365
-0.002294441083805924,1.389975480152247,1.563288133828163
-0.002293811083805923,1.389975480152247,1.562954131239095
-0.002293181083805923,1.390640073393028,1.56228612606096
-0.002292551083805923,1.390972370013417,1.561618120882825
-0.002291921083805923,1.390972370013417,1.559948107937487
-0.002291291083805923,1.391304666633807,1.558946100170284
-0.002290661083805923,1.390640073393027,1.557944092403082
-0.002290031083805923,1.390972370013417,1.557276087224947
-0.002289401083805924,1.391304666633807,1.556608082046812
-0.002288771083805923,1.391304666633807,1.555606074279609
-0.002288141083805923,1.391636963254198,1.554938069101474
-0.002287511083805923,1.391969259874588,1.553936061334272
-0.002286881083805923,1.391636963254197,1.553268056156137
-0.002286251083805923,1.391636963254197,1.552266048388934
-0.002285621083805923,1.391304666633807,1.551598043210799
-0.002284991083805923,1.390640073393027,1.551264040621732
-0.002284361083805924,1.390972370013417,1.549928030265462
-0.002283731083805923,1.391636963254197,1.549260025087326
-0.002283101083805923,1.391304666633807,1.548258017320124
-0.002282471083805923,1.391304666633807,1.547256009552921
-0.002281841083805923,1.391304666633807,1.546254001785718
-0.002281211083805923,1.391636963254198,1.545585996607583
-0.002280581083805923,1.391969259874588,1.544917991429448
-0.002279951083805923,1.392301556494978,1.544249986251313
-0.002279321083805924,1.391304666633808,1.542913975895044
-0.002278691083805923,1.391304666633807,1.542579973305976
-0.002278061083805923,1.391636963254197,1.541243962949705
-0.002277431083805923,1.391304666633808,1.540575957771571
-0.002276801083805923,1.392301556494978,1.539907952593435
-0.002276171083805923,1.392301556494977,1.538905944826232
-0.002275541083805923,1.391636963254197,1.538237939648097
-0.002274911083805923,1.392301556494978,1.537569934469962
-0.002274281083805924,1.392301556494978,1.53656792670276
-0.002273651083805923,1.392633853115368,1.535565918935557
-0.002273021083805923,1.391969259874588,1.534897913757422
-0.002272391083805923,1.391636963254198,1.53389590599022
-0.002271761083805923,1.391636963254197,1.532559895633949
-0.002271131083805923,1.391969259874587,1.531891890455814
-0.002270501083805923,1.391636963254197,1.531557887866747
