Lab7/data/Exp3_Plot1_Large_Amplitude.csv

#Digilent WaveForms Oscilloscope Acquisition
#Device Name: Discovery2
#Serial Number: SN:210321A189EA
#Date Time: 2024-04-21 20:08:07.722
#Sample rate: 160000Hz
#Samples: 8192
#Trigger: Source: Channel 1 Type: Edge Condition: Rising Level: 0 V Hyst.: Auto HoldOff: 0 s
#Channel 1: Range: 1 V/div Offset: -1.51 V Sample Mode: Average
#Channel 2: Range: 1 V/div Offset: -1.506 V Sample Mode: Average
#Wavegen Channel 1: Running
#Mode: Simple
#Type: Square
#Frequency: 100 Hz
#Period: 10 ms
#Amplitude: 2.1 V
#Offset: 1.5 V
#Symmetry: 50 %
#Phase: 0 °

Time (s),Channel 1 (V),Channel 2 (V)
-0.02152547635445363,-0.6200199096053571,0.4921620114029355
-0.02151922635445363,-0.6200199096053555,0.4921620114029355
-0.02151297635445363,-0.6163638300558063,0.4921620114029355
-0.02150672635445363,-0.6200199096053571,0.4884857825848479
-0.02150047635445363,-0.6163638300558063,0.4921620114029355
-0.02149422635445363,-0.6163638300558063,0.4921620114029355
-0.02148797635445363,-0.6163638300558063,0.4884857825848479
-0.02148172635445363,-0.6163638300558063,0.4884857825848479
-0.02147547635445363,-0.6200199096053571,0.4884857825848479
-0.02146922635445363,-0.6163638300558063,0.4884857825848479
-0.02146297635445363,-0.6163638300558063,0.4884857825848479
-0.02145672635445363,-0.6163638300558063,0.4884857825848479
-0.02145047635445363,-0.6163638300558063,0.4884857825848479
-0.02144422635445363,-0.6163638300558063,0.4921620114029355
-0.02143797635445363,-0.6163638300558063,0.4884857825848479
-0.02143172635445363,-0.6163638300558063,0.4884857825848479
-0.02142547635445363,-0.6163638300558063,0.4848095537667603
-0.02141922635445363,-0.6163638300558063,0.4848095537667603
-0.02141297635445363,-0.6163638300558063,0.4921620114029355
-0.02140672635445363,-0.6163638300558063,0.4884857825848479
-0.02140047635445363,-0.6163638300558063,0.4921620114029355
-0.02139422635445362,-0.6200199096053555,0.4884857825848462
-0.02138797635445363,-0.6163638300558063,0.4848095537667603
-0.02138172635445363,-0.6163638300558063,0.4884857825848479
-0.02137547635445363,-0.6163638300558063,0.4848095537667603
-0.02136922635445363,-0.6163638300558063,0.4848095537667603
-0.02136297635445362,-0.6200199096053555,0.4848095537667619
-0.02135672635445363,-0.6163638300558063,0.4884857825848479
-0.02135047635445363,-0.6200199096053571,0.4848095537667603
-0.02134422635445363,-0.6200199096053571,0.4848095537667603
-0.02133797635445363,-0.6163638300558063,0.4884857825848479
-0.02133172635445362,-0.6163638300558063,0.4848095537667603
-0.02132547635445363,-0.6163638300558063,0.4848095537667603
-0.02131922635445363,-0.6163638300558063,0.4811333249486727
-0.02131297635445363,-0.6163638300558063,0.4848095537667603
-0.02130672635445363,-0.6163638300558063,0.4848095537667603
-0.02130047635445363,-0.6127077505062571,0.4848095537667603
-0.02129422635445363,-0.6163638300558063,0.4848095537667603
-0.02128797635445363,-0.6200199096053571,0.4811333249486727
-0.02128172635445363,-0.6200199096053571,0.4848095537667603
-0.02127547635445363,-0.6163638300558063,0.4848095537667603
-0.02126922635445363,-0.6163638300558063,0.4811333249486743
-0.02126297635445363,-0.6200199096053571,0.4848095537667603
-0.02125672635445363,-0.6200199096053571,0.4848095537667603
-0.02125047635445363,-0.6200199096053571,0.4848095537667603
-0.02124422635445363,-0.6163638300558063,0.4848095537667603
-0.02123797635445363,-0.6163638300558063,0.4848095537667603
-0.02123172635445363,-0.6163638300558063,0.4848095537667603
-0.02122547635445363,-0.6200199096053571,0.4848095537667603
-0.02121922635445363,-0.6163638300558063,0.4848095537667603
-0.02121297635445363,-0.6163638300558063,0.4811333249486727
-0.02120672635445363,-0.6127077505062571,0.4811333249486727
-0.02120047635445363,-0.6163638300558063,0.4811333249486727
-0.02119422635445363,-0.6163638300558063,0.4811333249486727
-0.02118797635445363,-0.6163638300558063,0.4811333249486727
-0.02118172635445363,-0.6200199096053571,0.4848095537667603
-0.02117547635445363,-0.616363830055808,0.4811333249486743
-0.02116922635445363,-0.6163638300558063,0.4811333249486727
-0.02116297635445363,-0.6163638300558063,0.4811333249486727
-0.02115672635445363,-0.6163638300558063,0.4811333249486727
-0.02115047635445363,-0.6163638300558063,0.4811333249486727
-0.02114422635445363,-0.6200199096053555,0.4811333249486727
-0.02113797635445363,-0.6163638300558063,0.4774570961305851
-0.02113172635445363,-0.6200199096053571,0.4811333249486727
-0.02112547635445363,-0.6163638300558063,0.4811333249486727
-0.02111922635445363,-0.6163638300558063,0.4811333249486727
-0.02111297635445363,-0.6200199096053555,0.4774570961305867
-0.02110672635445363,-0.6163638300558063,0.4811333249486727
-0.02110047635445363,-0.6163638300558063,0.4774570961305851
-0.02109422635445363,-0.6200199096053571,0.4811333249486727
-0.02108797635445363,-0.6163638300558063,0.4811333249486727
-0.02108172635445363,-0.6200199096053555,0.4848095537667586
-0.02107547635445363,-0.6200199096053571,0.4811333249486727
-0.02106922635445363,-0.6163638300558063,0.4811333249486727
-0.02106297635445363,-0.6163638300558063,0.4774570961305851
-0.02105672635445363,-0.6163638300558063,0.4811333249486727
-0.02105047635445363,-0.6163638300558063,0.4774570961305867
-0.02104422635445363,-0.6163638300558063,0.4774570961305851
-0.02103797635445363,-0.6163638300558063,0.4811333249486727
-0.02103172635445363,-0.6200199096053571,0.4811333249486727
-0.02102547635445363,-0.6163638300558063,0.4774570961305851
-0.02101922635445363,-0.6163638300558063,0.4774570961305851
-0.02101297635445363,-0.6163638300558063,0.4774570961305851
-0.02100672635445363,-0.6163638300558063,0.4811333249486727
-0.02100047635445363,-0.6200199096053571,0.4774570961305851
-0.02099422635445363,-0.6200199096053571,0.4737808673124977
-0.02098797635445363,-0.616363830055808,0.4737808673124977
-0.02098172635445363,-0.6163638300558063,0.4774570961305851
-0.02097547635445363,-0.6200199096053571,0.4811333249486727
-0.02096922635445363,-0.6200199096053571,0.4774570961305851
-0.02096297635445363,-0.6163638300558063,0.4737808673124977
-0.02095672635445363,-0.6200199096053571,0.4774570961305851
-0.02095047635445363,-0.6200199096053571,0.4774570961305851
-0.02094422635445363,-0.6200199096053571,0.4774570961305851
-0.02093797635445363,-0.6200199096053571,0.4774570961305851
-0.02093172635445363,-0.6200199096053571,0.4774570961305851
-0.02092547635445363,-0.6163638300558063,0.4737808673124977
-0.02091922635445363,-0.6163638300558063,0.4774570961305851
-0.02091297635445363,-0.6163638300558063,0.4737808673124977
-0.02090672635445363,-0.6200199096053571,0.4774570961305851
-0.02090047635445363,-0.6163638300558063,0.4737808673124977
-0.02089422635445363,-0.6163638300558063,0.4774570961305851
-0.02088797635445363,-0.6200199096053571,0.4737808673124977
-0.02088172635445363,-0.6163638300558063,0.4774570961305851
-0.02087547635445363,-0.6163638300558063,0.4737808673124977
-0.02086922635445363,-0.6200199096053571,0.4737808673124977
-0.02086297635445363,-0.6200199096053571,0.4774570961305851
-0.02085672635445363,-0.6163638300558063,0.473780867312496
-0.02085047635445363,-0.6163638300558063,0.4701046384944101
-0.02084422635445363,-0.6200199096053571,0.4774570961305851
-0.02083797635445363,-0.6163638300558063,0.4737808673124977
-0.02083172635445363,-0.6200199096053571,0.4737808673124977
-0.02082547635445363,-0.6163638300558063,0.4774570961305851
-0.02081922635445363,-0.6163638300558063,0.4774570961305851
-0.02081297635445363,-0.6163638300558063,0.4737808673124977
-0.02080672635445363,-0.6163638300558063,0.4701046384944101
-0.02080047635445363,-0.6200199096053571,0.4737808673124977
-0.02079422635445363,-0.6163638300558063,0.4737808673124994
-0.02078797635445363,-0.6163638300558063,0.4774570961305851
-0.02078172635445363,-0.6200199096053571,0.4737808673124977
-0.02077547635445363,-0.6163638300558063,0.4737808673124977
-0.02076922635445363,-0.6163638300558063,0.4701046384944101
-0.02076297635445363,-0.6163638300558063,0.4701046384944118
-0.02075672635445363,-0.6163638300558063,0.4737808673124977
-0.02075047635445363,-0.6163638300558063,0.4701046384944101
-0.02074422635445363,-0.6163638300558063,0.4737808673124977
-0.02073797635445363,-0.6163638300558063,0.4737808673124977
-0.02073172635445363,-0.6163638300558063,0.4701046384944101
-0.02072547635445363,-0.6163638300558063,0.4701046384944101
-0.02071922635445363,-0.6163638300558063,0.4737808673124977
-0.02071297635445363,-0.6163638300558063,0.4737808673124977
-0.02070672635445363,-0.6163638300558063,0.4701046384944101
-0.02070047635445363,-0.6163638300558063,0.473780867312496
-0.02069422635445363,-0.6163638300558063,0.4701046384944101
-0.02068797635445363,-0.6200199096053571,0.4701046384944101
-0.02068172635445363,-0.6163638300558063,0.4737808673124977
-0.02067547635445363,-0.6163638300558063,0.4701046384944101
-0.02066922635445363,-0.6163638300558063,0.473780867312496
-0.02066297635445363,-0.6163638300558063,0.4701046384944101
-0.02065672635445363,-0.6163638300558063,0.4701046384944101
-0.02065047635445363,-0.6163638300558063,0.4701046384944101
-0.02064422635445363,-0.6163638300558063,0.4701046384944101
-0.02063797635445363,-0.6163638300558063,0.4701046384944101
-0.02063172635445363,-0.6163638300558063,0.4701046384944101
-0.02062547635445363,-0.6163638300558063,0.4701046384944101
-0.02061922635445363,-0.6163638300558063,0.4701046384944101
-0.02061297635445363,-0.6163638300558063,0.4664284096763225
-0.02060672635445362,-0.6163638300558063,0.4701046384944101
-0.02060047635445363,-0.6163638300558063,0.4701046384944101
-0.02059422635445363,-0.6200199096053571,0.4664284096763225
-0.02058797635445363,-0.6200199096053571,0.4664284096763225
-0.02058172635445363,-0.6163638300558063,0.4664284096763225
-0.02057547635445362,-0.6200199096053555,0.4664284096763225
-0.02056922635445363,-0.6163638300558063,0.4664284096763225
-0.02056297635445363,-0.6200199096053571,0.4664284096763225
-0.02055672635445363,-0.6163638300558063,0.4664284096763225
-0.02055047635445363,-0.6163638300558063,0.4701046384944101
-0.02054422635445362,-0.6163638300558063,0.4664284096763225
-0.02053797635445363,-0.6163638300558063,0.4664284096763225
-0.02053172635445363,-0.6163638300558063,0.4664284096763225
-0.02052547635445363,-0.6163638300558063,0.4701046384944101
-0.02051922635445363,-0.6163638300558063,0.4664284096763225
-0.02051297635445363,-0.6163638300558063,0.4664284096763225
-0.02050672635445363,-0.6163638300558063,0.4664284096763225
-0.02050047635445363,-0.6200199096053571,0.4664284096763225
-0.02049422635445363,-0.6163638300558063,0.4701046384944101
-0.02048797635445363,-0.6163638300558063,0.4664284096763225
-0.02048172635445363,-0.6163638300558063,0.4664284096763225
-0.02047547635445363,-0.6200199096053571,0.4664284096763225
-0.02046922635445363,-0.6200199096053571,0.4664284096763225
-0.02046297635445363,-0.6127077505062555,0.4664284096763225
-0.02045672635445363,-0.6163638300558063,0.4664284096763225
-0.02045047635445363,-0.6163638300558063,0.4664284096763225
-0.02044422635445363,-0.6163638300558063,0.4627521808582349
-0.02043797635445363,-0.6200199096053571,0.4664284096763225
-0.02043172635445363,-0.6163638300558063,0.4664284096763225
-0.02042547635445363,-0.6200199096053571,0.4664284096763225
-0.02041922635445363,-0.6200199096053571,0.4664284096763225
-0.02041297635445363,-0.6163638300558063,0.4701046384944101
-0.02040672635445363,-0.6200199096053571,0.4664284096763225
-0.02040047635445363,-0.6200199096053571,0.4664284096763225
-0.02039422635445363,-0.6200199096053571,0.4664284096763225
-0.02038797635445363,-0.616363830055808,0.4664284096763225
-0.02038172635445363,-0.6200199096053571,0.4664284096763225
-0.02037547635445363,-0.6163638300558063,0.4664284096763225
-0.02036922635445363,-0.6200199096053571,0.4664284096763225
-0.02036297635445363,-0.6127077505062555,0.4627521808582349
-0.02035672635445363,-0.6163638300558046,0.4664284096763208
-0.02035047635445363,-0.6163638300558063,0.4664284096763225
-0.02034422635445363,-0.6163638300558063,0.4627521808582349
-0.02033797635445363,-0.6163638300558063,0.4664284096763225
-0.02033172635445363,-0.6200199096053571,0.4627521808582349
-0.02032547635445363,-0.616363830055808,0.4664284096763208
-0.02031922635445363,-0.6163638300558063,0.4627521808582349
-0.02031297635445363,-0.6163638300558063,0.4627521808582349
-0.02030672635445363,-0.6163638300558063,0.4627521808582349
-0.02030047635445363,-0.6163638300558063,0.4627521808582349
-0.02029422635445363,-0.6163638300558063,0.4627521808582349
-0.02028797635445363,-0.6163638300558063,0.4627521808582349
-0.02028172635445363,-0.6163638300558063,0.4627521808582349
-0.02027547635445363,-0.6163638300558063,0.4664284096763225
-0.02026922635445363,-0.6163638300558063,0.4627521808582349
-0.02026297635445363,-0.6163638300558063,0.4627521808582349
-0.02025672635445363,-0.6163638300558063,0.4627521808582349
-0.02025047635445363,-0.6163638300558063,0.4627521808582349
-0.02024422635445363,-0.6200199096053571,0.4627521808582349
-0.02023797635445363,-0.6163638300558063,0.4627521808582349
-0.02023172635445363,-0.6163638300558063,0.4627521808582349
-0.02022547635445363,-0.6163638300558063,0.4590759520401473
-0.02021922635445363,-0.6163638300558063,0.4627521808582349
-0.02021297635445363,-0.6163638300558063,0.4590759520401473
-0.02020672635445363,-0.6200199096053571,0.4590759520401473
-0.02020047635445363,-0.616363830055808,0.4627521808582332
-0.02019422635445363,-0.6163638300558063,0.4590759520401473
-0.02018797635445363,-0.6163638300558063,0.4590759520401473
-0.02018172635445363,-0.6200199096053571,0.4627521808582349
-0.02017547635445363,-0.6163638300558063,0.4627521808582349
-0.02016922635445363,-0.6200199096053571,0.4627521808582349
-0.02016297635445363,-0.6163638300558063,0.4627521808582349
-0.02015672635445363,-0.6200199096053571,0.4590759520401473
-0.02015047635445363,-0.6163638300558063,0.4590759520401473
-0.02014422635445363,-0.6163638300558063,0.4627521808582349
-0.02013797635445363,-0.6127077505062555,0.4590759520401473
-0.02013172635445363,-0.6163638300558063,0.4627521808582349
-0.02012547635445363,-0.6200199096053571,0.4627521808582349
-0.02011922635445363,-0.6163638300558063,0.4590759520401473
-0.02011297635445363,-0.6163638300558063,0.4590759520401473
-0.02010672635445363,-0.6163638300558063,0.4627521808582349
-0.02010047635445363,-0.6163638300558063,0.4627521808582332
-0.02009422635445363,-0.6163638300558063,0.4590759520401473
-0.02008797635445363,-0.6200199096053571,0.4553997232220597
-0.02008172635445363,-0.6163638300558063,0.4590759520401473
-0.02007547635445363,-0.6163638300558063,0.4590759520401473
-0.02006922635445363,-0.6200199096053555,0.4627521808582332
-0.02006297635445363,-0.6163638300558063,0.4590759520401473
-0.02005672635445363,-0.6163638300558063,0.4590759520401473
-0.02005047635445363,-0.6163638300558063,0.4590759520401473
-0.02004422635445363,-0.6200199096053571,0.4590759520401473
-0.02003797635445363,-0.6163638300558063,0.4590759520401473
-0.02003172635445363,-0.6163638300558063,0.4590759520401473
-0.02002547635445363,-0.6163638300558063,0.4590759520401473
-0.02001922635445363,-0.6163638300558063,0.4553997232220597
-0.02001297635445363,-0.6163638300558063,0.4590759520401473
-0.02000672635445363,-0.6163638300558063,0.4553997232220613
-0.02000047635445363,-0.6163638300558063,0.4590759520401473
-0.01999422635445363,2.824007026071372,0.4774570961305851
-0.01998797635445363,3.668561402017576,0.4884857825848479
-0.01998172635445363,3.664905322468026,0.4995144690391105
-0.01997547635445363,3.657593163368921,0.506866926675289
-0.01996922635445363,3.650281004269822,0.5142193843114609
-0.01996297635445363,3.63931276562117,0.5252480707657236
-0.01995672635445363,3.63200060652207,0.528924299583811
-0.01995047635445363,3.624688447422968,0.5362767572199862
-0.01994422635445363,3.617376288323864,0.5473054436742539
-0.01993797635445363,3.610064129224765,0.5583341301285116
-0.01993172635445363,3.602751970125664,0.5656865877646867
-0.01992547635445363,3.599095890576113,0.5693628165827743
-0.01991922635445363,3.595439811026563,0.580391503037037
-0.01991297635445363,3.59543981102656,0.591420189491303
-0.01990672635445363,3.588127651927461,0.5987726471274748
-0.01990047635445363,3.584471572377911,0.6024488759455624
-0.01989422635445363,3.588127651927461,0.6098013335817375
-0.01988797635445363,3.588127651927461,0.6208300200360002
-0.01988172635445363,3.584471572377911,0.6281824776721786
-0.01987547635445363,3.584471572377911,0.6355349353083505
-0.01986922635445363,3.584471572377911,0.6428873929445256
-0.01986297635445363,3.58081549282836,0.6465636217626132
-0.01985672635445363,3.584471572377911,0.6539160793987883
-0.01985047635445363,3.584471572377909,0.6649447658530543
-0.01984422635445363,3.58081549282836,0.6722972234892262
-0.01983797635445363,3.58081549282836,0.6833259099434889
-0.01983172635445363,3.58081549282836,0.6870021387615763
-0.01982547635445363,3.58081549282836,0.6943545963977515
-0.01981922635445362,3.58081549282836,0.70170705403393
-0.01981297635445363,3.58081549282836,0.7090595116701017
-0.01980672635445363,3.58081549282836,0.7200881981243644
-0.01980047635445363,3.58081549282836,0.7274406557605396
-0.01979422635445363,3.58081549282836,0.7347931133967147
-0.01978797635445362,3.58081549282836,0.7421455710328948
-0.01978172635445363,3.58081549282836,0.7531742574871525
-0.01977547635445363,3.58081549282836,0.7568504863052401
-0.01976922635445363,3.577159413278809,0.7642029439414152
-0.01976297635445363,3.58081549282836,0.775231630395678
-0.01975672635445362,3.584471572377909,0.7789078592137705
-0.01975047635445363,3.58081549282836,0.7899365456680282
-0.01974422635445363,3.58081549282836,0.7972890033042034
-0.01973797635445363,3.58081549282836,0.8046414609403785
-0.01973172635445363,3.58081549282836,0.8119939185765536
-0.01972547635445363,3.577159413278811,0.8230226050308113
-0.01971922635445363,3.58081549282836,0.8303750626669915
-0.01971297635445363,3.577159413278809,0.8377275203031666
-0.01970672635445363,3.58081549282836,0.8450799779393416
-0.01970047635445363,3.58081549282836,0.8524324355755168
-0.01969422635445363,3.577159413278811,0.8597848932116886
-0.01968797635445363,3.577159413278809,0.867137350847867
-0.01968172635445363,3.58081549282836,0.8744898084840422
-0.01967547635445363,3.58081549282836,0.8818422661202173
-0.01966922635445363,3.577159413278809,0.89287095257448
-0.01966297635445363,3.577159413278809,0.9002234102106518
-0.01965672635445363,3.58081549282836,0.9075758678468303
-0.01965047635445363,3.58081549282836,0.9149283254830054
-0.01964422635445363,3.58081549282836,0.9222807831191806
-0.01963797635445363,3.58081549282836,0.9296332407553557
-0.01963172635445363,3.58081549282836,0.9369856983915275
-0.01962547635445363,3.58081549282836,0.9480143848457935
-0.01961922635445363,3.577159413278809,0.9553668424819687
-0.01961297635445363,3.577159413278809,0.9590430713000562
-0.01960672635445363,3.58081549282836,0.9663955289362314
-0.01960047635445363,3.58081549282836,0.9774242153904891
-0.01959422635445363,3.58081549282836,0.9847766730266692
-0.01958797635445363,3.58081549282836,0.9921291306628442
-0.01958172635445363,3.58081549282836,0.9994815882990195
-0.01957547635445363,3.577159413278809,1.006834045935195
-0.01956922635445363,3.577159413278809,1.014186503571366
-0.01956297635445363,3.58081549282836,1.021538961207545
-0.01955672635445363,3.58081549282836,1.02889141884372
-0.01955047635445363,3.58081549282836,1.036243876479895
-0.01954422635445363,3.58081549282836,1.047272562934158
-0.01953797635445363,3.58081549282836,1.05462502057033
-0.01953172635445363,3.58081549282836,1.061977478206508
-0.01952547635445363,3.58081549282836,1.069329935842683
-0.01951922635445363,3.58081549282836,1.073006164660771
-0.01951297635445363,3.58081549282836,1.084034851115034
-0.01950672635445363,3.58081549282836,1.091387308751205
-0.01950047635445363,3.577159413278809,1.098739766387384
-0.01949422635445363,3.577159413278809,1.106092224023559
-0.01948797635445363,3.58081549282836,1.117120910477821
